Modeling
…
Now that we have split our data, we want to create 5 folds on our training set to be used in 5-fold cross validation.

dm_5_fold <- vfold_cv(dm_train, 5)

Now we are ready to make our recipe, which will be common to both the classification tree and random forest models. Note we do not need to normalize our numeric predictors for either a classification tree or a random forest.

recipe(Diabetes ~ BMI + Smoker + PhysActivity + Fruits + Veggies + HvyAlcoholConsump + DiffWalk + Sex, data = dm_train) |>
  step_dummy(all_factor(), -Diabetes) |>
  prep(training = dm_train) |>
  bake(dm_train)

# A tibble: 177,576 × 9
     BMI Diabetes Smoker_yes PhysActivity_yes Fruits_yes Veggies_yes
   <dbl> <fct>         <dbl>            <dbl>      <dbl>       <dbl>
 1    33 no                1                1          0           1
 2    24 no                0                1          0           1
 3    26 no                1                1          0           1
 4    23 no                1                1          0           1
 5    20 no                0                1          1           1
 6    31 no                1                0          1           0
 7    35 no                0                1          1           1
 8    24 no                1                1          1           1
 9    41 no                0                1          1           1
10    39 no                1                0          0           0
# ℹ 177,566 more rows
# ℹ 3 more variables: HvyAlcoholConsump_yes <dbl>, DiffWalk_yes <dbl>,
#   Sex_male <dbl>
…
